1025;Active Carts;1/23/2014 8:29:28 PM;
1026;SRMC Med Cart;1/23/2014 8:50:40 PM;
1090;Respiratory;1/12/2015 6:15:21 PM;
1093;Heart Center;1/14/2015 7:19:08 PM;
1094;Emergency Pavillion;1/14/2015 7:20:40 PM;
1095;Gibbs Cancer Center;1/14/2015 9:37:07 PM;
1100;Service/Repair;1/22/2015 6:17:25 PM;
1101;Tower;1/26/2015 4:55:00 PM;
1102;Main Building;1/26/2015 9:11:23 PM;
1104;IS Reserve;2/2/2015 4:06:42 PM;
1113;Coronary Care Unit (CCU);3/3/2015 9:22:19 PM;
1114;Cardiovascular Recovery Unit (CVRU);3/3/2015 9:28:37 PM;
1115;Progressive Coronary Care Unit;3/3/2015 9:31:33 PM;
1116;Pelham Main;3/4/2015 12:58:54 PM;
1118;Progressive Care Vascular Unit (PCVU);3/4/2015 1:16:53 PM;
1119;Heart Cath Lab;3/4/2015 1:22:25 PM;
1120;Pallative Care;3/4/2015 1:27:13 PM;
1121;Inpatient Oncology;3/4/2015 1:27:57 PM;
1123;ICU (Surgical);3/4/2015 6:41:08 PM;
1124;ICU (Neuro);3/4/2015 6:41:33 PM;
1126;Medical Nursing;3/4/2015 6:47:51 PM;
1127;Renal Nursing;3/4/2015 6:49:33 PM;
1128;Vascular Nursing;3/4/2015 6:50:29 PM;
1129;Neonatal ICU;3/4/2015 7:06:42 PM;
1130;Pulmonary Nursing;3/4/2015 7:12:33 PM;
1131;Admissions;3/4/2015 7:16:01 PM;
1132;Scribes;3/4/2015 7:16:16 PM;
1133;Surgical;3/4/2015 7:21:48 PM;
1134;Pediatrics;3/5/2015 1:32:06 PM;
1135;Behavioral Health;3/5/2015 1:34:06 PM;
1136;Labor and Delivery;3/5/2015 6:21:36 PM;
1137;OR;3/11/2015 8:35:35 PM;
1138;Pelham - ICU;3/16/2015 4:47:43 PM;
1139;Pelham - Medical Surgery;3/16/2015 4:48:07 PM;
1141;Neurosurgery and Orthopedics;3/20/2015 4:33:27 PM;
1518;Restorative Care;8/8/2016 8:20:03 PM;
1555;Regional Outpatient Center;9/19/2016 2:07:13 PM;
1556;Endoscopy;9/19/2016 2:07:22 PM;
1557;North Grove;9/20/2016 2:23:14 PM;
1558;Infusion;9/20/2016 2:24:02 PM;
1561;PACU;9/26/2016 8:07:52 PM;
1562;Med. Surgery;9/26/2016 8:08:13 PM;
1563;Oncology - Gaffney;9/26/2016 8:13:24 PM;
1564;Emergency Medicine;9/27/2016 8:53:11 PM;
1684;UMC;7/18/2017 7:26:47 PM;
